{
    "type": "object",
    "properties": {
        "id": {
            "type": "integer"
        },
        "project_id": {
            "type": "integer"
        },
        "user_id": {
            "type": "integer"
        },
        "access_level": {
            "type": ["null", "integer"]
        }
    }
}
